<?xml version="1.0" encoding="UTF-8" standalone="no"?>
<svg
   xmlns:svg="http://www.w3.org/2000/svg"
   xmlns="http://www.w3.org/2000/svg"
   xmlns:xlink="http://www.w3.org/1999/xlink"
   version="1.1"
   id="Layer_1"
   width="100"
   height="100"
   viewBox="28.386 1.317 100 100"
   overflow="visible"
   enable-background="new 28.386 1.317 147 147"
   xml:space="preserve"
   style="overflow:visible; -webkit-filter: drop-shadow( 0px 0px 5px rgba(0, 0, 0, .7)); filter: drop-shadow( 0px 0px 5px rgba(0, 0, 0, .7));">
  <metadata>
  </metadata>
  <defs
      id="defs52">
    <linearGradient
        gradientTransform="translate(0,-614.7715)"
        y2="682.76978"
        x2="105.6487"
        y1="662.85278"
        x1="125.5657"
        gradientUnits="userSpaceOnUse"
        id="balk_5_">
      <stop
          id="stop2"
          style="stop-color:#6d6d6d"
          offset="0" />
      <stop
          id="stop4"
          style="stop-color:#5d5d5d"
          offset="1" />
    </linearGradient>
  </defs>
  <a target="_blank" rel="noopener noreferrer" xlink:href="https://basthon.fr/about.html#privacy">
  <g
      id="ribbon"
      transform="matrix(1.2258065,0,0,1.2258065,0.8281745,-5.610497)">
    <title>Ce site respecte votre vie pivée. Découvrez pourquoi.</title>
    <g
        transform="matrix(0.35229714,0.35229714,-0.35229714,0.35229714,60.578341,-29.730742)"
        id="g1563">
      <polygon
          style="fill:url(#balk_5_)"
          points="35.676,-1.977 55.591,-21.892 195.539,118.055 175.622,137.972 "
          id="balk"
          transform="matrix(1.2867833,-1.2867833,1.2867833,1.2867833,-113.48575,146.98874)" />
      <g
          style="opacity:0.5"
          id="g41"
          transform="matrix(1.2867833,-1.2867833,1.2867833,1.2867833,-113.48575,146.98874)">
        <line
            style="fill:none;stroke:#ffffff;stroke-dasharray:3, 1.5"
            id="line37"
            y2="144.51401"
            x2="185.08"
            y1="-9.8610001"
            x1="30.705" />
        <line
            style="fill:none;stroke:#ffffff;stroke-dasharray:3, 1.5"
            id="line39"
            y2="126.389"
            x2="200.955"
            y1="-27.986"
            x1="46.580002" />
      </g>
    </g>
    <path
        id="path907"
        d="M 80.749427,42.541356 79.058811,38.683292 C 78.99858,38.546018 78.844468,38.29074 78.524177,38.148655 L 74.666105,36.45804 c -0.358833,-0.156536 -0.763425,-0.08911 -1.025923,0.173399 -2.687646,2.687639 -2.892342,6.201321 -1.950704,8.351915 0.142078,0.320298 0.39496,0.472022 0.534634,0.534637 1.717108,0.753792 5.353608,1.047603 8.351919,-1.950708 0.262501,-0.262501 0.329927,-0.667089 0.173396,-1.025927 z m -7.648698,1.565386 4.554061,-4.554061 1.401613,3.198196 c -2.232477,1.962752 -4.727455,1.794173 -5.955674,1.355865 z M 71.52089,32.585523 c 1.702662,1.702657 4.46255,1.702658 6.165204,4e-6 1.702649,-1.702656 1.702649,-4.462545 -6e-6,-6.165202 -1.702649,-1.702651 -4.462537,-1.702652 -6.165197,2e-6 -1.702654,1.702653 -1.702643,4.462544 -1e-6,6.165196 z m 1.348641,3.275267 c 0.06023,-0.06022 0.134833,-0.09636 0.199853,-0.146938 -0.05781,-0.0626 -0.09873,-0.137266 -0.161355,-0.199883 L 72.505846,35.111787 C 71.725564,34.822788 70.991042,34.367625 70.364891,33.741473 69.738729,33.115318 69.28598,32.383201 68.994571,31.600511 L 68.592398,31.19833 c -1.786949,-1.786946 -4.686527,-1.786945 -6.473468,-10e-7 l -1.001845,1.001845 c -0.638196,0.638196 -0.638194,1.673755 0,2.311949 l 8.477162,8.477145 c 0.163758,0.163765 0.35642,0.284183 0.558712,0.36606 -0.267316,-2.333622 0.42145,-5.199472 2.716542,-7.494564 z"
        style="fill:#ffffff;fill-opacity:1;stroke-width:0.03405824" />
  </g>
  </a>
</svg>
