digraph {
	node [color=lightgray fillcolor=lightgray fontcolor=black shape=record style="filled, rounded"]
	 [label="<l>|<v> 1|<r>"]
	:l -> :v
	:r -> :v
	 [label="<l>|<v> 2|<r>"]
	:l -> :v
	:r -> :v
	 [label="<l>|<v> 3|<r>"]
	 [label="<l>|<v> 4|<r>"]
	 [label="<l>|<v> 5|<r>"]
}